<?xml version="1.0" encoding="UTF-8"?>
<svg width="21px" height="30px" viewBox="0 0 21 30" version="1.1" xmlns="http://www.w3.org/2000/svg" xmlns:xlink="http://www.w3.org/1999/xlink">
    <!-- Generator: Sketch 49 (51002) - http://www.bohemiancoding.com/sketch -->
    <title>Mouse </title>
    <desc>Created with Sketch.</desc>
    <defs></defs>
    <g id="Page-1" stroke="none" stroke-width="1" fill="none" fill-rule="evenodd">
        <g id="ybp_landing" transform="translate(-630.000000, -625.000000)" stroke="#FFFFFF" stroke-width="2">
            <g id="1" transform="translate(-123.000000, 0.000000)">
                <g id="Mouse-" transform="translate(754.000000, 626.000000)">
                    <path d="M9.33333333,28 C4.18716667,28 0,23.7237447 0,18.4680851 L0,9.53191489 C0,4.27625532 4.18716667,0 9.33333333,0 C14.4795,0 18.6666667,4.27625532 18.6666667,9.53191489 L18.6666667,18.4680851 C18.6666667,23.7237447 14.4795,28 9.33333333,28 L9.33333333,28 Z M17.5,9.53191489 C17.5,4.93276596 13.8366667,1.19148936 9.33333333,1.19148936 C4.83,1.19148936 1.16666667,4.93276596 1.16666667,9.53191489 L1.16666667,18.4680851 C1.16666667,23.067234 4.83,26.8085106 9.33333333,26.8085106 C13.8366667,26.8085106 17.5,23.067234 17.5,18.4680851 L17.5,9.53191489 L17.5,9.53191489 Z M9.33333333,9.33412766 C9.01133333,9.33412766 8.75,9.06723404 8.75,8.73838298 L8.75,5.06442553 C8.75,4.73557447 9.01133333,4.46868085 9.33333333,4.46868085 C9.65533333,4.46868085 9.91666667,4.73557447 9.91666667,5.06442553 L9.91666667,8.73838298 C9.91666667,9.06723404 9.65533333,9.33412766 9.33333333,9.33412766 L9.33333333,9.33412766 Z" id="Shape"></path>
                </g>
            </g>
        </g>
    </g>
</svg>