<?xml version="1.0" encoding="UTF-8"?>
<svg width="15px" height="15px" viewBox="0 0 15 15" version="1.1" xmlns="http://www.w3.org/2000/svg" xmlns:xlink="http://www.w3.org/1999/xlink">
    <!-- Generator: Sketch 49 (51002) - http://www.bohemiancoding.com/sketch -->
    <title>Icon</title>
    <desc>Created with Sketch.</desc>
    <defs></defs>
    <g id="Page-1" stroke="none" stroke-width="1" fill="none" fill-rule="evenodd">
        <g id="ybp_landing" transform="translate(-445.000000, -2969.000000)" fill="#2599F2">
            <g id="6" transform="translate(140.000000, 2756.000000)">
                <g id="Phone" transform="translate(305.000000, 207.000000)">
                    <g id="Icon" transform="translate(0.000000, 6.000000)">
                        <path d="M14.993,11.494 C15.024,11.731 14.95,11.936 14.77,12.111 L12.658,14.148 C12.563,14.251 12.439,14.338 12.285,14.41 C12.132,14.482 11.981,14.528 11.833,14.549 C11.822,14.549 11.79,14.552 11.737,14.557 C11.684,14.562 11.616,14.564 11.531,14.564 C11.33,14.564 11.004,14.531 10.554,14.464 C10.104,14.397 9.554,14.233 8.903,13.97 C8.252,13.708 7.513,13.315 6.688,12.79 C5.862,12.266 4.983,11.546 4.052,10.63 C3.311,9.92 2.697,9.241 2.21,8.594 C1.723,7.946 1.331,7.347 1.035,6.796 C0.738,6.246 0.516,5.747 0.368,5.3 C0.219,4.852 0.119,4.466 0.066,4.142 C0.013,3.818 -0.008,3.564 0.002,3.379 C0.013,3.194 0.018,3.091 0.018,3.07 C0.039,2.926 0.087,2.78 0.161,2.63 C0.235,2.481 0.325,2.36 0.431,2.268 L2.543,0.216 C2.691,0.072 2.861,0 3.051,0 C3.189,0 3.311,0.039 3.416,0.116 C3.522,0.193 3.612,0.288 3.686,0.401 L5.386,3.533 C5.481,3.698 5.507,3.878 5.465,4.073 C5.423,4.269 5.333,4.433 5.195,4.567 L4.417,5.323 C4.396,5.343 4.377,5.377 4.361,5.423 C4.345,5.469 4.337,5.508 4.337,5.539 C4.38,5.755 4.475,6.002 4.623,6.279 C4.75,6.526 4.946,6.827 5.211,7.182 C5.475,7.537 5.851,7.946 6.338,8.408 C6.815,8.881 7.238,9.249 7.609,9.512 C7.979,9.774 8.289,9.967 8.538,10.09 C8.786,10.214 8.977,10.288 9.109,10.314 L9.308,10.352 C9.329,10.352 9.363,10.345 9.411,10.329 C9.459,10.314 9.493,10.296 9.514,10.275 L10.419,9.38 C10.61,9.216 10.832,9.134 11.086,9.134 C11.266,9.134 11.409,9.164 11.515,9.226 L11.531,9.226 L14.595,10.985 C14.818,11.119 14.95,11.288 14.993,11.494 L14.993,11.494 Z" id="Shape"></path>
                    </g>
                </g>
            </g>
        </g>
    </g>
</svg>