<?xml version="1.0" encoding="UTF-8"?>
<svg viewBox="0 0 1380 720" version="1.1" xmlns="http://www.w3.org/2000/svg" xmlns:xlink="http://www.w3.org/1999/xlink">
    <defs></defs>
    <g id="Page-1" stroke="none" stroke-width="1" fill="none" fill-rule="evenodd" font-family="ProximaNova-Bold, Proxima Nova" font-size="360" font-weight="400" line-spacing="315" opacity="0.100000001">
        <g id="ybp_landing" fill="#FFFFFF">
            <g id="1">
                <g id="Yourbet-Partners">
                    <text>
                        <tspan x="37.78" y="340">Yourbet</tspan>
                        <tspan x="8.6875" y="640" font-family=".SFNSDisplay, .SF NS Display" font-weight="normal">Partners</tspan>
                    </text>
                </g>
            </g>
        </g>
    </g>
</svg>