<svg xmlns="http://www.w3.org/2000/svg" width="9" height="23" viewBox="0 0 9 23">
  <defs>
    <style>
      .cls-1 {
        font-size: 25px;
        opacity: 0.7;
        fill: #000;
        font-family: Arial;
        font-weight: 700;
      }
    </style>
  </defs>
  <text id="_" data-name="→" class="cls-1" transform="translate(-1.731 -0.966) rotate(90)">→</text>
</svg>
