{
  "soccer": {
    "src": "./src/landSoccer",
    "optimize_id": "GTM-M4CN9DR",
    "host": "soccer.yourbet.com"
  },
  "cyberpunk": {
    "src": "./src/landCyberPunk",
    "optimize_id": "GTM-NWZ5LJV",
    "host": "retrowave.yourbet.com"
  },
  "myltisport": {
    "src": "./src/landMyltiSport",
    "optimize_id": "GTM-TZJMBXC",
    "host": "betting.yourbet.com"
  },
  "spring": {
    "src": "./src/landSpring",
    "optimize_id": "GTM-NRTMDW6",
    "host": "spring.yourbet.com"
  },
  "lucky": {
    "src": "./src/landLucky",
    "optimize_id": "GTM-NRTMDW6",
    "host": "lucky.yourbet.com"
  },
  "partners": {
    "src": "./src/landPartners",
    "host": "partners.yourbet.rain.wtf"
  },
  "yourbet": {
    "src": "./src/landYourbet",
    "optimize_id": "GTM-NRTMDW6",
    "host": "partners.yourbet.rain.wtf"
  },
  "sportx2": {
    "src": "./src/landSportx2",
    "optimize_id": "GTM-NRTMDW6",
    "host": "partners.yourbet.rain.wtf"
  }
}
