<svg xmlns="http://www.w3.org/2000/svg" xmlns:xlink="http://www.w3.org/1999/xlink" width="503" height="582" viewBox="0 0 503 582">
<defs>
    <style>
      .cls-11 {
        fill: #beeafb;
        fill-rule: evenodd;
        filter: url(#filter11);
      }
    </style>
    <filter id="filter11" x="3110" y="4876" width="503" height="582" filterUnits="userSpaceOnUse">
      <feGaussianBlur result="blur" stdDeviation="8" in="SourceAlpha"/>
      <feComposite result="composite"/>
      <feComposite result="composite-2"/>
      <feComposite result="composite-3"/>
      <feFlood result="flood" flood-color="#16dde9" flood-opacity="0.57"/>
      <feComposite result="composite-4" operator="in" in2="composite-3"/>
      <feBlend result="blend" in2="SourceGraphic"/>
      <feBlend result="blend-2" in="SourceGraphic"/>
    </filter>
  </defs>
  <path id="Shape_2_copy_2" data-name="Shape 2 copy 2" class="cls-11" d="M3579.9,5026.14h-0.07a3.6,3.6,0,0,1-3.52-3.67c0.45-23.26,3.34-113.92,3.36-114.07-0.07.1-33.99,0.09-34.17,0.05-1.94-.43-3.62-1.55-3.65-3.54a3.6,3.6,0,0,1,3.54-3.65c12.75-.2,25.55-0.2,38.03,0a4.731,4.731,0,0,1,.52.04,1.766,1.766,0,0,1,.2.04,3.586,3.586,0,0,1,2.87,3.61v0.07c-0.01-.01-3.05,93.28-3.52,117.59A3.6,3.6,0,0,1,3579.9,5026.14Zm-440.83,279.85h0.07a3.586,3.586,0,0,1,3.51,3.66c-0.45,23.27,5.68,113.93,5.66,114.07,0.06-.1,33.87-0.09,34.05-0.05,1.93,0.43,3.6,1.56,3.63,3.54a3.579,3.579,0,0,1-3.52,3.65c-12.71.2-25.46,0.2-37.91,0a2.922,2.922,0,0,1-.51-0.04l-0.2-.03a3.6,3.6,0,0,1-2.86-3.61v-0.08c0.01,0.01-5.96-93.28-5.49-117.59A3.581,3.581,0,0,1,3139.07,5305.99Z" transform="translate(-3110 -4876)"/>
</svg>
