<svg xmlns="http://www.w3.org/2000/svg" xmlns:xlink="http://www.w3.org/1999/xlink" width="455" height="506" viewBox="0 0 455 506">
<defs>
    <style>
      .cls-8 {
        fill: #fbced0;
        fill-rule: evenodd;
        filter: url(#filter8);
      }
    </style>
    <filter id="filter8" x="3129" y="4911" width="455" height="506" filterUnits="userSpaceOnUse">
      <feGaussianBlur result="blur" stdDeviation="8" in="SourceAlpha"/>
      <feComposite result="composite"/>
      <feComposite result="composite-2"/>
      <feComposite result="composite-3"/>
      <feFlood result="flood" flood-color="#db3c42" flood-opacity="0.57"/>
      <feComposite result="composite-4" operator="in" in2="composite-3"/>
      <feBlend result="blend" in2="SourceGraphic"/>
      <feBlend result="blend-2" in="SourceGraphic"/>
    </filter>
  </defs>
  <path class="cls-8" d="M3180.74,5311.09c-0.09-.06,3.62,72.56,3.62,72.56h352.63l12.99-440.36H3162.04s1.76,57.48,1.6,57.77c-0.02.04-7.14-.27-7.16,0.61,0,0.12-1.83-61.78-1.83-61.78a3.625,3.625,0,0,1,.98-2.67,3.577,3.577,0,0,1,2.61-1.12h395.45a3.587,3.587,0,0,1,3.59,3.71l-13.22,447.56a3.6,3.6,0,0,1-3.59,3.48H3180.96a3.6,3.6,0,0,1-3.59-3.4s-3.44-75.83-3.37-76.45" transform="translate(-3129 -4911)"/>
</svg>
