<?xml version="1.0" encoding="UTF-8"?>
<svg width="130px" height="136px" viewBox="0 0 130 136" version="1.1" xmlns="http://www.w3.org/2000/svg" xmlns:xlink="http://www.w3.org/1999/xlink">
    <!-- Generator: Sketch 49 (51002) - http://www.bohemiancoding.com/sketch -->
    <title>cup</title>
    <desc>Created with Sketch.</desc>
    <defs></defs>
    <g id="Page-1" stroke="none" stroke-width="1" fill="none" fill-rule="evenodd">
        <g id="yb-spring_2-1" transform="translate(-398.000000, -618.000000)" fill-rule="nonzero">
            <g id="Group-5" transform="translate(206.000000, 562.000000)">
                <g id="1">
                    <g id="cup">
                        <g transform="translate(247.930328, 141.000000) rotate(12.000000) translate(-247.930328, -141.000000) translate(182.430328, 63.000000)">
                            <path d="M89.2489709,156 L39.7510291,156 C36.5877959,156 34,153.413959 34,150.252871 L34,140.747129 C34,137.586041 36.5877959,135 39.7510291,135 L89.2489709,135 C92.4122041,135 95,137.586041 95,140.747129 L95,150.252568 C95.000304,153.413959 92.4122041,156 89.2489709,156 Z" id="Shape" fill="#CC7400"></path>
                            <path d="M59.1796935,150.253092 L59.1796935,140.747212 C59.1796935,137.586078 61.7986622,135 65,135 L39.8203065,135 C36.6189687,135 34,137.586078 34,140.747212 L34,150.252788 C34,153.413922 36.6189687,156 39.8203065,156 L65,156 C61.7989699,156.000304 59.1796935,153.414226 59.1796935,150.253092 Z" id="Shape" fill="#AA6100"></path>
                            <path d="M75.3667385,99 L55.6335575,99 C55.6335575,99 60.1822681,116.111907 53,130 L78,130 C70.8177319,116.111907 75.3667385,99 75.3667385,99 Z" id="Shape" fill="#DDB200"></path>
                            <path d="M64.5732025,99 L55.6450571,99 C55.6450571,99 60.2136299,116.111907 53,130 L61.9281454,130 C69.1420726,116.111907 64.5732025,99 64.5732025,99 Z" id="Shape" fill="#CCA400"></path>
                            <path d="M79.2650318,134 L49.7349682,134 C46.5807508,134 44,131.524986 44,128.5 C44,125.475014 46.5807508,123 49.7349682,123 L79.2650318,123 C82.4192492,123 85,125.475014 85,128.5 C85,131.524986 82.4192492,134 79.2650318,134 Z" id="Shape" fill="#FFCD00"></path>
                            <path d="M59.0056305,128.5 C59.0056305,125.475014 61.7031126,123 65,123 L49.9943695,123 C46.697482,123 44,125.475014 44,128.5 C44,131.524986 46.697482,134 49.9943695,134 L65,134 C61.7031126,134 59.0056305,131.524986 59.0056305,128.5 Z" id="Shape" fill="#EEBF00"></path>
                            <ellipse id="Oval" fill="#FFCD00" cx="65" cy="94" rx="18" ry="11"></ellipse>
                            <path d="M47,94 C47,100.075222 54.8172097,105 64.460024,105 C67.981711,105 71.2572457,104.341014 74,103.21097 C65.8337997,95.9547038 64.460024,83 64.460024,83 C54.8172097,83.0003091 47,87.9250871 47,94 Z" id="Shape" fill="#EEBF00"></path>
                            <g id="Group" transform="translate(0.000000, 17.000000)" fill="#FFCD00">
                                <path d="M40.2696449,58.7299381 C4.20148832,54.1741649 0.108044393,26.3413711 0.0223434579,14.5863814 C-0.00550934579,10.7769278 1.4688528,7.18765979 4.17363551,4.48035052 C6.88760047,1.76422165 10.504486,0.267628866 14.3576612,0.267628866 L41.007285,0.267628866 L41.007285,11.8945825 L14.3579673,11.8945825 C13.3978107,11.8945825 11.7235818,12.3179227 11.7235818,14.5018351 C11.7235818,27.6989794 17.1065187,44.0833402 41.7455374,47.1954381 L40.2696449,58.7299381 Z" id="Shape"></path>
                                <path d="M90.7303551,58.7299381 C126.798512,54.1741649 130.891956,26.3413711 130.977657,14.5866856 C131.005509,10.777232 129.530841,7.18796392 126.826364,4.48065464 C124.1124,1.76422165 120.495514,0.26793299 116.642339,0.26793299 L89.992715,0.26793299 L89.992715,11.8948866 L116.642339,11.8948866 C117.602495,11.8948866 119.276724,12.3182268 119.276724,14.5021392 C119.276724,27.6992835 113.893787,44.0836443 89.2547687,47.1957423 L90.7303551,58.7299381 Z" id="Shape"></path>
                            </g>
                            <g id="Group" transform="translate(19.000000, 17.000000)" fill="#EEBF00">
                                <path d="M4.33240196,53.9047113 C9.0252549,56.1689124 14.6660392,57.8671392 21.4471373,58.729634 L22.9123431,47.1957423 C13.9396667,46.054366 7.54120588,43.1262629 3.03252941,39.2264845 C3.07994118,44.0228196 3.40240196,49.0134897 4.33240196,53.9047113 Z" id="Shape"></path>
                                <path d="M22.1798922,0.26793299 L0.0699019608,0.26793299 C1.11052941,3.03606701 2.28123529,6.97203608 2.95746078,11.8948866 L22.1798922,11.8948866 L22.1798922,0.26793299 Z" id="Shape"></path>
                                <path d="M88.667598,53.9047113 C83.9747451,56.1689124 78.3339608,57.8671392 71.5528627,58.729634 L70.0876569,47.1960464 C79.0603333,46.0546701 85.4587941,43.126567 89.9674706,39.2267887 C89.9197549,44.0228196 89.597598,49.0134897 88.667598,53.9047113 Z" id="Shape"></path>
                                <path d="M70.8201078,0.26793299 L92.930098,0.26793299 C91.8894706,3.03606701 90.7187647,6.97203608 90.0425392,11.8948866 L70.8201078,11.8948866 L70.8201078,0.26793299 Z" id="Shape"></path>
                            </g>
                            <path d="M107,8 L25,8 C25,8 32.0647826,19.2399319 32.0647826,37.6687241 C32.0647826,56.0975164 24.7841103,95 66,95 C107.21589,95 99.9352174,56.0975164 99.9352174,37.6687241 C99.9352174,19.2399319 107,8 107,8 Z" id="Shape" fill="#FFDE55"></path>
                            <path d="M82,91.9299176 C69.9271273,87.6394866 62.8679341,72.875159 63.7881741,50.3813471 C64.4684038,33.7556982 61.4652617,18.4985962 58.5682547,8 L25,8 C25,8 31.9364744,19.2398925 31.9364744,37.6686201 C31.9364744,56.0973478 24.7880312,95 65.2553718,95 C72.1185768,95 77.6086584,93.8787552 82,91.9299176 Z" id="Shape" fill="#FFD422"></path>
                            <path d="M107.26833,17 L24.7322837,17 C19.9295276,17 16,13.1750672 16,8.50014943 C16,3.82493275 19.9295276,0 24.7322837,0 L107.267716,0 C112.070472,0 116,3.82493275 116,8.49985057 C116.000614,13.1747684 112.071086,17 107.26833,17 Z" id="Shape" fill="#FFEB99"></path>
                            <path d="M51.3761164,8.5 C51.3761164,3.825 55.256864,0 60,0 L24.6238836,0 C19.8807476,0 16,3.825 16,8.5 C16,13.175 19.8807476,17 24.6238836,17 L60,17 C55.256864,17.0002989 51.3761164,13.1755977 51.3761164,8.5 Z" id="Shape" fill="#FFDE55"></path>
                        </g>
                    </g>
                </g>
            </g>
        </g>
    </g>
</svg>