<?xml version="1.0" encoding="UTF-8"?>
<svg width="150px" height="141px" viewBox="0 0 150 141" version="1.1" xmlns="http://www.w3.org/2000/svg" xmlns:xlink="http://www.w3.org/1999/xlink">
    <!-- Generator: Sketch 49 (51002) - http://www.bohemiancoding.com/sketch -->
    <title>support</title>
    <desc>Created with Sketch.</desc>
    <defs></defs>
    <g id="Page-1" stroke="none" stroke-width="1" fill="none" fill-rule="evenodd">
        <g id="yb-spring_2-1" transform="translate(-1082.000000, -613.000000)" fill-rule="nonzero">
            <g id="Group-5" transform="translate(206.000000, 562.000000)">
                <g id="3" transform="translate(709.000000, 33.000000)">
                    <g id="support">
                        <g transform="translate(166.122951, 18.140940)">
                            <path d="M87.4995396,101.699905 C83.9282426,103.899968 79.9996931,105 75.7138911,105 L73.9282426,105 C69.6424406,105 65.7138911,103.899968 62.1425941,101.699905 L50.714198,94 L50,94 L50,112.333438 L75,127 L100,112.333438 L100,94 L99.285802,94 L87.4995396,101.699905 Z" id="Shape" fill="#E2B698"></path>
                            <path d="M91.7855981,91 L50.3572547,91 L50,98.2223343 L58.2144019,105.083443 C62.8571779,107.61109 68.2144633,112.666693 73.9286964,112.666693 L75.7143559,112.666693 C76.7858129,112.666693 77.5000153,112.666693 78.5714724,112.666693 C85.3571626,111.944552 91.4286504,116.277705 91.4286504,122.416673 L70.7143252,143 L74.9998465,139.750213 L100,122.055758 L100,104.361303 L100,91 L91.7855981,91 Z" id="Shape" fill="#D8A984"></path>
                            <path d="M0,151.537264 L2.17148189,134.953723 C2.89520551,129.42577 6.87615197,124.635089 12.3048567,122.792543 L50.666563,111 L76,125.740679 L101.333437,111 L139.695143,123.161179 C145.123848,125.003724 149.104794,129.426087 149.828518,135.322358 L152,151.537264 C117.980635,161.487579 34.0190535,161.487579 0,151.537264 Z" id="Shape" fill="#D5E3EF"></path>
                            <path d="M116.028448,46.9257757 C116.028448,24.7850616 98.3398113,7 76.3191365,7 C54.2984617,7 36.6098246,24.7850616 36.6098246,46.9257757 L33,46.9257757 L33,54.1850928 C33,58.1776703 36.2490283,61.4444098 40.2199595,61.4444098 L40.2199595,74.8741307 C40.2199595,82.4962108 44.1908907,89.3924528 50.3278407,93.3850304 L63.6847503,101.733261 C67.2945749,103.911087 71.2655061,105 75.5975438,105 L77.4024562,105 C81.7344939,105 85.7054251,103.911087 89.3152497,101.733261 L102.672159,93.3850304 C109.169906,89.3924528 112.780041,82.4962108 112.780041,74.8741307 L112.780041,61.4444098 C116.750972,61.4444098 120,58.1776703 120,54.1850928 L120,46.9257757 L116.028448,46.9257757 Z" id="Shape" fill="#EFC9AE"></path>
                            <g id="Group" transform="translate(58.000000, 50.000000)" fill="#595A66">
                                <ellipse id="Oval" cx="3.8440678" cy="3.5126" rx="3.5499661" ry="3.25808"></ellipse>
                                <ellipse id="Oval" cx="32.2447119" cy="3.5126" rx="3.5499661" ry="3.25808"></ellipse>
                            </g>
                            <g id="Group" transform="translate(78.000000, 140.000000)" fill="#B0C4D9">
                                <ellipse id="Oval" cx="2.53846154" cy="2.07375" rx="2.23769231" ry="1.818125"></ellipse>
                            </g>
                            <polygon id="Shape" fill="#E2B698" points="83 75 76 75 76 53"></polygon>
                            <path d="M36.3334384,41 L40,41 L40,67 L36.3334384,67 C32.3000945,67 29,63.6570745 29,59.571383 L29,48.428617 C29.0003151,44.3429255 32.3000945,41 36.3334384,41 Z" id="Shape" fill="#F04D4E"></path>
                            <path d="M91,141 L91,126 L76,126 C78.2497583,133.12504 83.8749597,138.749919 91,141 Z" id="Shape" fill="#B0C4D8"></path>
                            <path d="M90.7747033,139 C88.5584184,132.349991 83.0180237,127.099826 76,125.00006 L83.0180237,121.150039 C90.4055341,116.949907 97.0540712,111.00012 101.85581,104 L105.180237,105.050033 C110.351463,106.799988 114.414546,109.950087 117,114.50003 L90.7747033,139 Z" id="Shape" fill="#70B7E5"></path>
                            <path d="M104.74245,105.060624 L101.473978,104 C101.11071,104.706982 100.384487,105.414267 100.021219,106.121249 C101.11071,106.474892 101.836933,107.181873 102.563156,107.535516 C106.557851,110.363747 107.284075,116.020208 103.652647,119.555724 L92.3947846,130.161665 C89.8528478,132.636253 89.4895802,135.818127 90.5790709,139 L116,114.252602 C113.821331,110.010104 109.463368,106.474892 104.74245,105.060624 Z" id="Shape" fill="#4C9CD6"></path>
                            <rect id="Rectangle-path" fill="#DE333F" x="35" y="41" width="2" height="26"></rect>
                            <path d="M115.454061,46.9257757 C115.454061,24.7850616 98.0814567,7 76.4542131,7 C70.4269085,7 65.1089136,8.45198817 60.145269,10.6295026 C60.854274,10.6295026 61.5635837,10.6295026 62.2725888,10.6295026 C78.9361877,10.6295026 93.117812,21.1552471 98.7907664,36.3997193 C95.9544416,35.3108061 93.1181167,34.221893 90.636142,32.7702167 C76.8088679,39.3033837 59.0816091,42.5701231 41,43.2959613 L41,46.9254638 C59.0816091,46.1996257 76.8088679,42.5698112 90.636142,36.3997193 C92.0544568,37.1255574 93.4724669,37.8517074 94.8907817,38.5775456 C98.4361116,40.3922968 100.918086,43.6590363 101.272436,47.6516139 C101.272436,48.740527 101.272436,49.4663651 101.272436,50.5552783 L101.272436,78.5033213 C101.272436,82.8589739 99.8541217,87.2143146 97.7271065,90.481054 L97.3724517,90.481054 C96.6634466,88.3032277 94.5361268,86.8515515 92.408807,86.8515515 L81.7725126,86.8515515 C78.9361877,86.8515515 76.4542131,89.3921409 76.4542131,92.2961172 C76.4542131,95.2000936 78.9358831,97.740683 81.7725126,97.740683 L89.927137,97.740683 L78.5818376,105 C82.1271675,104.636925 85.6728021,103.548012 88.8634771,101.733261 L101.981746,93.3850304 C108.363401,89.3924528 111.909036,82.4962108 111.909036,74.8741307 L111.909036,61.4444098 C115.80902,61.4444098 119,58.1776703 119,54.1850928 L119,46.9257757 L115.454061,46.9257757 Z" id="Shape" fill="#E2B698"></path>
                            <path d="M91,32.25 C75.0500156,39.4167693 54.0250078,43 33,43 L33,39.4167693 C33,17.5583231 50.762426,0 72.8749611,0 L80.1250389,0 C102.237574,0 120,17.5583231 120,39.4167693 C117.462644,39.4167693 115.28759,39.4167693 112.749922,39.0583231 C104.77493,38.3417385 97.1625506,35.8335386 91,32.25" id="Shape" fill="#DA8C36"></path>
                            <g id="Group" transform="translate(33.000000, 0.000000)" fill="#C97629">
                                <path d="M54.0304179,0.714721429 C67.04655,7.14782857 76.0855393,20.3718643 76.0855393,35.7400643 L76.0855393,38.2417429 C77.1702429,38.5992571 78.6163071,38.5992571 79.7010107,38.9564643 C82.2320893,39.3142857 84.4011857,39.3142857 86.9322643,39.3142857 C86.9322643,20.0146571 72.8314286,3.93142857 54.0304179,0.714721429 Z" id="Shape"></path>
                                <path d="M50.053275,8.57757857 L39.9295821,0 L47.8838679,12.1518 C50.4146357,15.7257143 51.4993393,19.6571429 51.8610107,23.9460857 C51.8610107,27.1627929 49.6916036,29.6644714 46.4374929,30.0219857 C44.2680857,30.0219857 42.46035,30.7367071 40.2909429,31.4517357 C28.7211857,35.3831643 14.62035,42.1737857 0.157842857,42.8885071 C19.320525,42.8885071 38.4828964,39.6718 54.0301071,33.9534143 C58.00725,32.1664571 58.00725,32.1664571 58.00725,32.1664571 C60.1769679,23.5885714 57.2845286,14.2959643 50.053275,8.57757857 Z" id="Shape"></path>
                            </g>
                            <path d="M119.384735,53 C117.215452,53 115.76947,54.491043 115.76947,56.7271271 L115.76947,75.3634034 C115.76947,81.6997758 111.069563,86.5451051 104.923364,86.5451051 L93.7156069,86.5451051 C92.992616,84.3087007 90.8233327,82.817978 88.6540493,82.817978 L81.4232084,82.817978 C78.5309341,82.817978 76,85.4269029 76,88.408989 C76,91.3910751 78.5306234,94 81.4232084,94 L104.923053,94 C115.046168,94 123,85.8000641 123,75.3637237 L123,56.7274474 C123,54.491043 121.554018,53 119.384735,53 Z" id="Shape" fill="#595A66"></path>
                            <path d="M120,76 C119.399966,76 119,75.3091719 119,74.2727812 L119,58.7272188 C119,57.6908281 119.399966,57 120,57 C120.600034,57 121,57.6908281 121,58.7272188 L121,74.2727812 C121,75.308875 120.600034,76 120,76 Z" id="Shape" fill="#494A52"></path>
                            <path d="M114.666562,67 L111,67 L111,41 L114.666562,41 C118.699905,41 122,44.3429255 122,48.428617 L122,59.571383 C122,63.6570745 118.699905,67 114.666562,67 Z" id="Shape" fill="#F04D4E"></path>
                            <rect id="Rectangle-path" fill="#DE333F" x="111" y="41" width="2" height="26"></rect>
                            <path d="M95.8332808,85 L103.166719,85 C104.266751,85 105,85.3999656 105,86 C105,86.6000344 104.266751,87 103.166719,87 L95.8332808,87 C94.7332493,87 94,86.6000344 94,86 C94,85.3999656 94.7335644,85 95.8332808,85 Z" id="Shape" fill="#6F707E"></path>
                            <path d="M31,49.8332808 L31,57.1667192 C31,58.2667507 30.6000344,59 30,59 C29.3999656,59 29,58.2667507 29,57.1667192 L29,49.8332808 C29,48.7332493 29.3999656,48 30,48 C30.6000344,48 31,48.7332493 31,49.8332808 Z" id="Shape" fill="#F26A56"></path>
                            <path d="M79.75,83 L83.25,83 C84.3000602,83 85,83.3999656 85,84 C85,84.6000344 84.3000602,85 83.25,85 L79.75,85 C78.6999398,85 78,84.6000344 78,84 C78,83.4001375 78.6999398,83 79.75,83 Z" id="Shape" fill="#6F707E"></path>
                            <path d="M79.8570973,91 L102.142903,91 C103.257225,91 104,91.3999656 104,92 C104,92.6000344 103.257225,93 102.142903,93 L79.8570973,93 C78.7427751,93 78,92.6000344 78,92 C78,91.3999656 78.7427751,91 79.8570973,91 Z" id="Shape" fill="#494A52"></path>
                            <path d="M69.7996849,89 C65.0332283,89 61,84.9666562 61,80.200063 C61,79.1000315 62.1,78 63.2,78 C64.3,78 65.4,79.1000315 65.4,80.200063 C65.4,82.7665931 67.2332283,84.6001891 69.8,84.6001891 C70.9,84.6001891 72,85.7002206 72,86.8002521 C71.9996849,87.8999685 70.8996849,89 69.7996849,89 Z" id="Shape" fill="#F48476"></path>
                            <path d="M61,126 L61,140.666562 C65.5001611,139.199748 69.2500806,136.266436 72.2500806,132.966656 L72.2500806,159 C73.3751209,159 74.8749597,159 76,159 L76,126 L61,126 Z" id="Shape" fill="#B0C4D9"></path>
                            <path d="M61.2252967,139 C63.4415816,132.349991 68.9819763,127.099826 76,125.00006 L68.9819763,121.150039 C61.5944659,116.949907 54.9459288,111.00012 50.1441899,104 L46.8197626,105.050033 C41.6485371,106.799988 37.585454,109.950087 35,114.50003 L61.2252967,139 Z" id="Shape" fill="#70B7E5"></path>
                            <path d="M57.2453672,129.083359 L46.0635781,118.250078 C43.8271563,116.083359 41.2182109,115 38.2364219,115 C37.1182109,115 36,115 36,115.722136 L62.0910547,141 C64.3274766,134.138932 69.9182109,128.722136 77,126.555728 C73.6453672,124.38901 69.1728437,125.111146 66.1910547,127.639087 C65.8182109,128.00031 65.4456875,128.361223 65.0728438,128.722446 C62.8364219,130.888854 59.1092656,130.888854 57.2453672,129.083359 Z" id="Shape" fill="#4C9CD6"></path>
                        </g>
                    </g>
                </g>
            </g>
        </g>
    </g>
</svg>